{
  "name": "Nintendo Switch Share Photos",
  "photos": [
    {
      "uri": "photos_and_videos/NintendoSwitchSharePhotos_8ZuW0BIEpg/48384946_10156195439523095_2118089407222251520_o_10156195439518095.jpg",
      "creation_timestamp": 1545275402,
      "media_metadata": {
        "photo_metadata": {
          "upload_ip": "34.219.112.230"
        }
      },
      "title": "Nintendo Switch Share Photos",
      "description": "blarg"
    }
  ],
  "cover_photo": {
    "uri": "photos_and_videos/NintendoSwitchSharePhotos_8ZuW0BIEpg/48384946_10156195439523095_2118089407222251520_o_10156195439518095.jpg",
    "creation_timestamp": 1545275402,
    "media_metadata": {
      "photo_metadata": {
        "upload_ip": "34.219.112.230"
      }
    },
    "title": "Nintendo Switch Share Photos",
    "description": "blarg"
  },
  "last_modified_timestamp": 1556132292,
  "description": ""
}