{
  "installed_apps": [
    {
      "name": "The Game",
      "added_timestamp": 1590795763
    },
    {
      "name": "YouTube",
      "added_timestamp": 1590795763
    },
    {
      "name": "Twitch",
      "added_timestamp": 1585172088
    },
    {
      "name": "StreamElements",
      "added_timestamp": 1585099150
    },
    {
      "name": "Hinge",
      "added_timestamp": 1584271175
    },
    {
      "name": "Clyp",
      "added_timestamp": 1575787175
    },
    {
      "name": "See Tickets",
      "added_timestamp": 1572730935
    },
    {
      "name": "Hotels.com",
      "added_timestamp": 1564278972
    },
    {
      "name": "Do512",
      "added_timestamp": 1561042541
    },
    {
      "name": "Kickstarter",
      "added_timestamp": 1559106177
    },
    {
      "name": "Indiegogo",
      "added_timestamp": 1557012392
    },
    {
      "name": "The Ticket Fairy",
      "added_timestamp": 1552524948
    },
    {
      "name": "FX Networks",
      "added_timestamp": 1548321055
    },
    {
      "name": "FXNOW",
      "added_timestamp": 1548320866
    },
    {
      "name": "Bumble",
      "added_timestamp": 1545874785
    },
    {
      "name": "Skrill",
      "added_timestamp": 1545840924
    },
    {
      "name": "Nintendo Switch Share",
      "added_timestamp": 1545275383
    },
    {
      "name": "goPuff",
      "added_timestamp": 1542072204
    },
    {
      "name": "Taste - Movies & TV",
      "added_timestamp": 1541442387
    },
    {
      "name": "Postmates",
      "added_timestamp": 1537250116
    },
    {
      "name": "Two Dots",
      "added_timestamp": 1537075357
    },
    {
      "name": "GOG.com",
      "added_timestamp": 1536900559
    },
    {
      "name": "Netflix",
      "added_timestamp": 1536718699
    },
    {
      "name": "Getaround",
      "added_timestamp": 1533755131
    },
    {
      "name": "The Clymb",
      "added_timestamp": 1532173628
    },
    {
      "name": "Favor",
      "added_timestamp": 1531503136
    },
    {
      "name": "Lime",
      "added_timestamp": 1531419890
    },
    {
      "name": "Front Gate Tickets",
      "added_timestamp": 1529650910
    },
    {
      "name": "Tinder",
      "added_timestamp": 1528346644
    },
    {
      "name": "Spotify",
      "added_timestamp": 1527100828
    },
    {
      "name": "Festival Saviors",
      "added_timestamp": 1520715475
    },
    {
      "name": "Magisto",
      "added_timestamp": 1512966488
    },
    {
      "name": "Etsy",
      "added_timestamp": 1512781041
    },
    {
      "name": "Uber",
      "added_timestamp": 1510387834
    },
    {
      "name": "Venmo",
      "added_timestamp": 1508991596
    },
    {
      "name": "Queue Ticketing",
      "added_timestamp": 1507166760
    },
    {
      "name": "Disco Donnie Presents",
      "added_timestamp": 1505620902
    },
    {
      "name": "Goodreads",
      "added_timestamp": 1501092340
    },
    {
      "name": "StubHub",
      "added_timestamp": 1500347683
    },
    {
      "name": "Hulu",
      "added_timestamp": 1499838044
    },
    {
      "name": "Honey",
      "added_timestamp": 1499661712
    },
    {
      "name": "RideAustin",
      "added_timestamp": 1499564543
    },
    {
      "name": "DoorDash",
      "added_timestamp": 1494113530
    },
    {
      "name": "Patreon",
      "added_timestamp": 1492668135
    },
    {
      "name": "nametests.com",
      "added_timestamp": 1492667748
    },
    {
      "name": "Ride Austin",
      "added_timestamp": 1488367533
    },
    {
      "name": "AKC Login",
      "added_timestamp": 1473991207
    },
    {
      "name": "TikTok",
      "added_timestamp": 1472427339
    },
    {
      "name": "Pinterest",
      "added_timestamp": 1471854767
    },
    {
      "name": "Bandsintown",
      "added_timestamp": 1449877497
    },
    {
      "name": "Pinnion Poll",
      "added_timestamp": 1448783408
    },
    {
      "name": "ScoreBig",
      "added_timestamp": 1447912186
    },
    {
      "name": "Yelp",
      "added_timestamp": 1447029690
    },
    {
      "name": "Saucey",
      "added_timestamp": 1446861045
    },
    {
      "name": "Feeld",
      "added_timestamp": 1444963443
    },
    {
      "name": "Airbnb",
      "added_timestamp": 1440453707
    },
    {
      "name": "Hipmunk",
      "added_timestamp": 1439619045
    },
    {
      "name": "Electric Forest",
      "added_timestamp": 1435189383
    },
    {
      "name": "Waze",
      "added_timestamp": 1433282152
    },
    {
      "name": "Medium",
      "added_timestamp": 1432755285
    },
    {
      "name": "AXS",
      "added_timestamp": 1431993373
    },
    {
      "name": "Online Ordering",
      "added_timestamp": 1425256085
    },
    {
      "name": "Taglit-Birthright Israel Reg",
      "added_timestamp": 1423950245
    },
    {
      "name": "Trivia Crack",
      "added_timestamp": 1421029786
    },
    {
      "name": "Untappd",
      "added_timestamp": 1419829970
    },
    {
      "name": "Bloons Monkey City",
      "added_timestamp": 1417910653
    },
    {
      "name": "Lyft",
      "added_timestamp": 1408860398
    },
    {
      "name": "SoundCloud",
      "added_timestamp": 1405086736
    },
    {
      "name": "Electric Forest mobile apps",
      "added_timestamp": 1403544333
    },
    {
      "name": "Timehop",
      "added_timestamp": 1400435879
    },
    {
      "name": "Clash of Clans",
      "added_timestamp": 1398437265
    },
    {
      "name": "Vine",
      "added_timestamp": 1383013662
    },
    {
      "name": "Say the Same Thing",
      "added_timestamp": 1383010595
    },
    {
      "name": "Curiosity",
      "added_timestamp": 1383007429
    },
    {
      "name": "Bloons TD 5",
      "added_timestamp": 1383007394
    },
    {
      "name": "Draw Something",
      "added_timestamp": 1383001704
    },
    {
      "name": "TicketWeb United States",
      "added_timestamp": 1382998706
    },
    {
      "name": "The Verge",
      "added_timestamp": 1382995582
    },
    {
      "name": "Microsoft SwiftKey",
      "added_timestamp": 1382995204
    },
    {
      "name": "Snake",
      "added_timestamp": 1382990568
    },
    {
      "name": "turntable",
      "added_timestamp": 1382974916
    },
    {
      "name": "ESPN",
      "added_timestamp": 1382967806
    },
    {
      "name": "Songkick.com",
      "added_timestamp": 1382959862
    },
    {
      "name": "TouchTunes",
      "added_timestamp": 1382910423
    },
    {
      "name": "LivingSocial",
      "added_timestamp": 1382034720
    },
    {
      "name": "Rockstar Games Social Club",
      "added_timestamp": 1380320205
    },
    {
      "name": "Foursquare",
      "added_timestamp": 1380250760
    }
  ]
}