{
  "support_correspondence": [
    {
      "timestamp": 1349045989,
      "subject": "Report an Issue with Notifications - I have a poke notification that appears both on the upper right notification area as well as in the pokes app, and whenever I delete the poke notification it will immediately return.",
      "messages": [
        {
          "from": "briaguya@gmail.com",
          "to": "",
          "subject": "Report an Issue with Notifications - I have a poke notification that appears both on the upper right notification area as well as in the pokes app, and whenever I delete the poke notification it will immediately return.",
          "message": " Contact form submitted: Introduction: null -- Detailed description: \"I have a poke notification that appears both on the upper right notification area as well as in the pokes app, and whenever I delete the poke notification it will immediately return.\" -- Label: null -- Label: null",
          "timestamp": 1349045988,
          "attachments": [
            
          ]
        },
        {
          "from": "",
          "to": "",
          "subject": "Re: Report an Issue with Notifications - I have a poke notification that appears both on the upper right notification area as well as in the pokes app, and whenever I delete the poke notification it will immediately return.",
          "message": "Hi, \n\nThanks for taking the time to report this to us. We're sorry to hear you're experiencing an issue using Facebook. While we aren't responding to every report, we may reach out to you for more information as we investigate this. \n\nTo receive more information about on-going issues and updates when we fix reported problems, check out our Known Issues Page:\n\nhttps://www.facebook.com/KnownIssues\n\nThanks again for taking the time to help us improve Facebook. \n\nThanks,\nThe Facebook Team",
          "timestamp": 1349045991,
          "attachments": [
            
          ]
        }
      ]
    },
    {
      "timestamp": 1494559100,
      "subject": "You anonymously reported Lachast Jiwom.",
      "messages": [
        {
          "from": "FB Rep",
          "to": "Brian Smith",
          "subject": "",
          "message": "We reviewed the profile you reported and found that it doesn't go against any of our Community Standards. If there's something specific on this profile that you think we should review (example: a photo), please report the content itself. We want to keep Facebook safe and welcoming for everyone, so thanks again for taking the time to report this. ",
          "timestamp": 1494579459,
          "attachments": [
            
          ]
        }
      ]
    },
    {
      "timestamp": 1563492577,
      "subject": "You anonymously reported PragerU's ad.",
      "messages": [
        {
          "from": "FB Rep",
          "to": "Brian Smith",
          "subject": "",
          "message": " Thanks for your feedback  You did the right thing by letting us know about this. While this ad is being reviewed, it will continue to be seen on Facebook. If upon review we find the ad goes against our Ad Policies, then we will take it down.Since you reported this ad, we won't show you this in the future and will take your feedback into account when it comes to future ads you see.Please continue to report ads that you think don't belong on our platforms and are misleading, offensive or inappropriate.Click here  to review and manage your ad preferences. Learn more  about giving feedback on ads. ",
          "timestamp": 1563816340,
          "attachments": [
            
          ]
        }
      ]
    },
    {
      "timestamp": 1578345650,
      "subject": "",
      "messages": [
        {
          "from": "FB Rep",
          "to": "Brian Smith",
          "subject": "",
          "message": " No one else can see your comment. https://www.reddit.com/r/mother4/",
          "timestamp": 1578345650,
          "attachments": [
            
          ]
        }
      ]
    }
  ]
}