{
  "admin_records": [
    {
      "event": "Copyright Violation",
      "session": {
        "created_timestamp": 1597517894,
        "user_agent": "",
        "datr_cookie": ""
      }
    },
    {
      "event": "Copyright Violation",
      "session": {
        "created_timestamp": 1597517844,
        "user_agent": "",
        "datr_cookie": ""
      }
    },
    {
      "event": "Copyright Violation",
      "session": {
        "created_timestamp": 1597517829,
        "user_agent": "",
        "datr_cookie": ""
      }
    },
    {
      "event": "Copyright Violation",
      "session": {
        "created_timestamp": 1597517806,
        "user_agent": "",
        "datr_cookie": ""
      }
    },
    {
      "event": "Copyright Violation",
      "session": {
        "created_timestamp": 1597517806,
        "user_agent": "",
        "datr_cookie": ""
      }
    },
    {
      "event": "Copyright Violation",
      "session": {
        "created_timestamp": 1597349596,
        "user_agent": "",
        "datr_cookie": ""
      }
    },
    {
      "event": "Copyright Violation",
      "session": {
        "created_timestamp": 1597349590,
        "user_agent": "",
        "datr_cookie": ""
      }
    },
    {
      "event": "Copyright Violation",
      "session": {
        "created_timestamp": 1596926271,
        "user_agent": "",
        "datr_cookie": ""
      }
    },
    {
      "event": "Password Change",
      "session": {
        "created_timestamp": 1593566133,
        "ip_address": "96.43.167.155",
        "user_agent": "Mozilla/5.0 (iPhone; CPU iPhone OS 13_5_1 like Mac OS X) AppleWebKit/605.1.15 (KHTML, like Gecko) Mobile/15E148 [FBAN/FBIOS;FBAV/276.0.0.50.119;FBBV/225412681;FBDV/iPhone12,3;FBMD/iPhone;FBSN/iOS;FBSV/13.5.1;FBSS/3;FBID/phone;FBLC/en_US;FBOP/5;FBRV/0]",
        "datr_cookie": "tOP7********************"
      },
      "extra_info": {
        "old_name": "",
        "new_name": "",
        "old_number": "",
        "old_vanity": "",
        "new_vanity": "",
        "old_email": "",
        "new_email": "+15177069720",
        "new_number": ""
      }
    },
    {
      "event": "Password Change",
      "session": {
        "created_timestamp": 1593296979,
        "ip_address": "136.49.8.136",
        "user_agent": "Mozilla/5.0 (X11; Linux x86_64; rv:76.0) Gecko/20100101 Firefox/76.0",
        "datr_cookie": "t8f3********************"
      }
    },
    {
      "event": "Password Change",
      "session": {
        "created_timestamp": 1593296925,
        "ip_address": "136.49.8.136",
        "user_agent": "Mozilla/5.0 (X11; Linux x86_64; rv:76.0) Gecko/20100101 Firefox/76.0",
        "datr_cookie": "t8f3********************"
      },
      "extra_info": {
        "old_name": "",
        "new_name": "",
        "old_number": "",
        "old_vanity": "",
        "new_vanity": "",
        "old_email": "",
        "new_email": "+15177069720",
        "new_number": ""
      }
    },
    {
      "event": "Copyright Violation",
      "session": {
        "created_timestamp": 1592769775,
        "user_agent": "",
        "datr_cookie": ""
      }
    },
    {
      "event": "Copyright Violation",
      "session": {
        "created_timestamp": 1592769775,
        "user_agent": "",
        "datr_cookie": ""
      }
    },
    {
      "event": "Copyright Violation",
      "session": {
        "created_timestamp": 1592769774,
        "user_agent": "",
        "datr_cookie": ""
      }
    },
    {
      "event": "Copyright Violation",
      "session": {
        "created_timestamp": 1592769774,
        "user_agent": "",
        "datr_cookie": ""
      }
    },
    {
      "event": "Copyright Violation",
      "session": {
        "created_timestamp": 1592769773,
        "user_agent": "",
        "datr_cookie": ""
      }
    },
    {
      "event": "Copyright Violation",
      "session": {
        "created_timestamp": 1592769773,
        "user_agent": "",
        "datr_cookie": ""
      }
    },
    {
      "event": "Copyright Violation",
      "session": {
        "created_timestamp": 1592769772,
        "user_agent": "",
        "datr_cookie": ""
      }
    },
    {
      "event": "Copyright Violation",
      "session": {
        "created_timestamp": 1592769772,
        "user_agent": "",
        "datr_cookie": ""
      }
    },
    {
      "event": "Copyright Violation",
      "session": {
        "created_timestamp": 1592769771,
        "user_agent": "",
        "datr_cookie": ""
      }
    },
    {
      "event": "Copyright Violation",
      "session": {
        "created_timestamp": 1592769771,
        "user_agent": "",
        "datr_cookie": ""
      }
    },
    {
      "event": "Copyright Violation",
      "session": {
        "created_timestamp": 1592769770,
        "user_agent": "",
        "datr_cookie": ""
      }
    },
    {
      "event": "Copyright Violation",
      "session": {
        "created_timestamp": 1592769770,
        "user_agent": "",
        "datr_cookie": ""
      }
    },
    {
      "event": "Copyright Violation",
      "session": {
        "created_timestamp": 1592769769,
        "user_agent": "",
        "datr_cookie": ""
      }
    },
    {
      "event": "Copyright Violation",
      "session": {
        "created_timestamp": 1592769769,
        "user_agent": "",
        "datr_cookie": ""
      }
    },
    {
      "event": "Copyright Violation",
      "session": {
        "created_timestamp": 1592769768,
        "user_agent": "",
        "datr_cookie": ""
      }
    },
    {
      "event": "Copyright Violation",
      "session": {
        "created_timestamp": 1592769768,
        "user_agent": "",
        "datr_cookie": ""
      }
    },
    {
      "event": "Copyright Violation",
      "session": {
        "created_timestamp": 1592769767,
        "user_agent": "",
        "datr_cookie": ""
      }
    },
    {
      "event": "Copyright Violation",
      "session": {
        "created_timestamp": 1592769767,
        "user_agent": "",
        "datr_cookie": ""
      }
    },
    {
      "event": "Copyright Violation",
      "session": {
        "created_timestamp": 1592769766,
        "user_agent": "",
        "datr_cookie": ""
      }
    },
    {
      "event": "Copyright Violation",
      "session": {
        "created_timestamp": 1592769766,
        "user_agent": "",
        "datr_cookie": ""
      }
    },
    {
      "event": "Copyright Violation",
      "session": {
        "created_timestamp": 1592769765,
        "user_agent": "",
        "datr_cookie": ""
      }
    },
    {
      "event": "Copyright Violation",
      "session": {
        "created_timestamp": 1592769765,
        "user_agent": "",
        "datr_cookie": ""
      }
    },
    {
      "event": "Copyright Violation",
      "session": {
        "created_timestamp": 1592769764,
        "user_agent": "",
        "datr_cookie": ""
      }
    },
    {
      "event": "Copyright Violation",
      "session": {
        "created_timestamp": 1592769764,
        "user_agent": "",
        "datr_cookie": ""
      }
    },
    {
      "event": "Copyright Violation",
      "session": {
        "created_timestamp": 1592769764,
        "user_agent": "",
        "datr_cookie": ""
      }
    },
    {
      "event": "Copyright Violation",
      "session": {
        "created_timestamp": 1592769763,
        "user_agent": "",
        "datr_cookie": ""
      }
    },
    {
      "event": "Copyright Violation",
      "session": {
        "created_timestamp": 1592769763,
        "user_agent": "",
        "datr_cookie": ""
      }
    },
    {
      "event": "Copyright Violation",
      "session": {
        "created_timestamp": 1592769762,
        "user_agent": "",
        "datr_cookie": ""
      }
    },
    {
      "event": "Copyright Violation",
      "session": {
        "created_timestamp": 1592769761,
        "user_agent": "",
        "datr_cookie": ""
      }
    },
    {
      "event": "Copyright Violation",
      "session": {
        "created_timestamp": 1592769761,
        "user_agent": "",
        "datr_cookie": ""
      }
    },
    {
      "event": "Copyright Violation",
      "session": {
        "created_timestamp": 1592769760,
        "user_agent": "",
        "datr_cookie": ""
      }
    },
    {
      "event": "Copyright Violation",
      "session": {
        "created_timestamp": 1592769760,
        "user_agent": "",
        "datr_cookie": ""
      }
    },
    {
      "event": "Copyright Violation",
      "session": {
        "created_timestamp": 1592769760,
        "user_agent": "",
        "datr_cookie": ""
      }
    },
    {
      "event": "Copyright Violation",
      "session": {
        "created_timestamp": 1592769759,
        "user_agent": "",
        "datr_cookie": ""
      }
    },
    {
      "event": "Copyright Violation",
      "session": {
        "created_timestamp": 1592769759,
        "user_agent": "",
        "datr_cookie": ""
      }
    },
    {
      "event": "Copyright Violation",
      "session": {
        "created_timestamp": 1592769758,
        "user_agent": "",
        "datr_cookie": ""
      }
    },
    {
      "event": "Copyright Violation",
      "session": {
        "created_timestamp": 1592769757,
        "user_agent": "",
        "datr_cookie": ""
      }
    },
    {
      "event": "Copyright Violation",
      "session": {
        "created_timestamp": 1592769757,
        "user_agent": "",
        "datr_cookie": ""
      }
    },
    {
      "event": "Copyright Violation",
      "session": {
        "created_timestamp": 1592769756,
        "user_agent": "",
        "datr_cookie": ""
      }
    },
    {
      "event": "Copyright Violation",
      "session": {
        "created_timestamp": 1592769756,
        "user_agent": "",
        "datr_cookie": ""
      }
    },
    {
      "event": "Copyright Violation",
      "session": {
        "created_timestamp": 1592769755,
        "user_agent": "",
        "datr_cookie": ""
      }
    },
    {
      "event": "Copyright Violation",
      "session": {
        "created_timestamp": 1592769755,
        "user_agent": "",
        "datr_cookie": ""
      }
    },
    {
      "event": "Copyright Violation",
      "session": {
        "created_timestamp": 1592769754,
        "user_agent": "",
        "datr_cookie": ""
      }
    },
    {
      "event": "Copyright Violation",
      "session": {
        "created_timestamp": 1592769754,
        "user_agent": "",
        "datr_cookie": ""
      }
    },
    {
      "event": "Copyright Violation",
      "session": {
        "created_timestamp": 1592769754,
        "user_agent": "",
        "datr_cookie": ""
      }
    },
    {
      "event": "Copyright Violation",
      "session": {
        "created_timestamp": 1592769753,
        "user_agent": "",
        "datr_cookie": ""
      }
    },
    {
      "event": "Copyright Violation",
      "session": {
        "created_timestamp": 1592769753,
        "user_agent": "",
        "datr_cookie": ""
      }
    },
    {
      "event": "Copyright Violation",
      "session": {
        "created_timestamp": 1592769752,
        "user_agent": "",
        "datr_cookie": ""
      }
    },
    {
      "event": "Copyright Violation",
      "session": {
        "created_timestamp": 1592769752,
        "user_agent": "",
        "datr_cookie": ""
      }
    },
    {
      "event": "Copyright Violation",
      "session": {
        "created_timestamp": 1592769751,
        "user_agent": "",
        "datr_cookie": ""
      }
    },
    {
      "event": "Copyright Violation",
      "session": {
        "created_timestamp": 1592769750,
        "user_agent": "",
        "datr_cookie": ""
      }
    },
    {
      "event": "Copyright Violation",
      "session": {
        "created_timestamp": 1592769750,
        "user_agent": "",
        "datr_cookie": ""
      }
    },
    {
      "event": "Copyright Violation",
      "session": {
        "created_timestamp": 1592769750,
        "user_agent": "",
        "datr_cookie": ""
      }
    },
    {
      "event": "Copyright Violation",
      "session": {
        "created_timestamp": 1592769749,
        "user_agent": "",
        "datr_cookie": ""
      }
    },
    {
      "event": "Copyright Violation",
      "session": {
        "created_timestamp": 1592769749,
        "user_agent": "",
        "datr_cookie": ""
      }
    },
    {
      "event": "Copyright Violation",
      "session": {
        "created_timestamp": 1592769749,
        "user_agent": "",
        "datr_cookie": ""
      }
    },
    {
      "event": "Copyright Violation",
      "session": {
        "created_timestamp": 1592769748,
        "user_agent": "",
        "datr_cookie": ""
      }
    },
    {
      "event": "Copyright Violation",
      "session": {
        "created_timestamp": 1592769747,
        "user_agent": "",
        "datr_cookie": ""
      }
    },
    {
      "event": "Copyright Violation",
      "session": {
        "created_timestamp": 1592769747,
        "user_agent": "",
        "datr_cookie": ""
      }
    },
    {
      "event": "Copyright Violation",
      "session": {
        "created_timestamp": 1592253772,
        "user_agent": "",
        "datr_cookie": ""
      }
    },
    {
      "event": "Copyright Violation",
      "session": {
        "created_timestamp": 1592253772,
        "user_agent": "",
        "datr_cookie": ""
      }
    },
    {
      "event": "Copyright Violation",
      "session": {
        "created_timestamp": 1592253772,
        "user_agent": "",
        "datr_cookie": ""
      }
    },
    {
      "event": "Copyright Violation",
      "session": {
        "created_timestamp": 1592253772,
        "user_agent": "",
        "datr_cookie": ""
      }
    },
    {
      "event": "Copyright Violation",
      "session": {
        "created_timestamp": 1592253771,
        "user_agent": "",
        "datr_cookie": ""
      }
    },
    {
      "event": "Copyright Violation",
      "session": {
        "created_timestamp": 1592253771,
        "user_agent": "",
        "datr_cookie": ""
      }
    },
    {
      "event": "Copyright Violation",
      "session": {
        "created_timestamp": 1592253769,
        "user_agent": "",
        "datr_cookie": ""
      }
    },
    {
      "event": "Copyright Violation",
      "session": {
        "created_timestamp": 1592253769,
        "user_agent": "",
        "datr_cookie": ""
      }
    },
    {
      "event": "Copyright Violation",
      "session": {
        "created_timestamp": 1592253767,
        "user_agent": "",
        "datr_cookie": ""
      }
    },
    {
      "event": "Copyright Violation",
      "session": {
        "created_timestamp": 1592253767,
        "user_agent": "",
        "datr_cookie": ""
      }
    },
    {
      "event": "Copyright Violation",
      "session": {
        "created_timestamp": 1592253767,
        "user_agent": "",
        "datr_cookie": ""
      }
    },
    {
      "event": "Copyright Violation",
      "session": {
        "created_timestamp": 1592253765,
        "user_agent": "",
        "datr_cookie": ""
      }
    },
    {
      "event": "Copyright Violation",
      "session": {
        "created_timestamp": 1592253765,
        "user_agent": "",
        "datr_cookie": ""
      }
    },
    {
      "event": "Copyright Violation",
      "session": {
        "created_timestamp": 1592253764,
        "user_agent": "",
        "datr_cookie": ""
      }
    },
    {
      "event": "Copyright Violation",
      "session": {
        "created_timestamp": 1592253763,
        "user_agent": "",
        "datr_cookie": ""
      }
    },
    {
      "event": "Copyright Violation",
      "session": {
        "created_timestamp": 1592253762,
        "user_agent": "",
        "datr_cookie": ""
      }
    },
    {
      "event": "Copyright Violation",
      "session": {
        "created_timestamp": 1592253761,
        "user_agent": "",
        "datr_cookie": ""
      }
    },
    {
      "event": "Copyright Violation",
      "session": {
        "created_timestamp": 1592253761,
        "user_agent": "",
        "datr_cookie": ""
      }
    },
    {
      "event": "Copyright Violation",
      "session": {
        "created_timestamp": 1592253760,
        "user_agent": "",
        "datr_cookie": ""
      }
    },
    {
      "event": "Copyright Violation",
      "session": {
        "created_timestamp": 1592253760,
        "user_agent": "",
        "datr_cookie": ""
      }
    },
    {
      "event": "Copyright Violation",
      "session": {
        "created_timestamp": 1592253760,
        "user_agent": "",
        "datr_cookie": ""
      }
    },
    {
      "event": "Checkpoint completed",
      "session": {
        "created_timestamp": 1591563820,
        "ip_address": "136.49.8.136",
        "user_agent": "",
        "datr_cookie": ""
      }
    },
    {
      "event": "Password Change",
      "session": {
        "created_timestamp": 1591563718,
        "ip_address": "136.49.8.136",
        "user_agent": "Mozilla/5.0 (Macintosh; Intel Mac OS X 10_15_5) AppleWebKit/537.36 (KHTML, like Gecko) Chrome/83.0.4103.61 Safari/537.36",
        "datr_cookie": "HWuQ********************"
      }
    },
    {
      "event": "Checkpoint",
      "session": {
        "created_timestamp": 1591561715,
        "user_agent": "",
        "datr_cookie": ""
      }
    },
    {
      "event": "Checkpoint completed",
      "session": {
        "created_timestamp": 1591428318,
        "ip_address": "136.49.8.136",
        "user_agent": "",
        "datr_cookie": ""
      }
    },
    {
      "event": "Password Change",
      "session": {
        "created_timestamp": 1591428231,
        "ip_address": "136.49.8.136",
        "user_agent": "Mozilla/5.0 (Macintosh; Intel Mac OS X 10_15_5) AppleWebKit/537.36 (KHTML, like Gecko) Chrome/83.0.4103.61 Safari/537.36",
        "datr_cookie": "HWuQ********************"
      }
    },
    {
      "event": "Checkpoint",
      "session": {
        "created_timestamp": 1591428028,
        "user_agent": "",
        "datr_cookie": ""
      }
    },
    {
      "event": "Password Change",
      "session": {
        "created_timestamp": 1572600372,
        "ip_address": "2600:1700:00f0:7ed0:d161:d1a6:4eeb:e819",
        "user_agent": "Mozilla/5.0 (Windows NT 10.0; Win64; x64) AppleWebKit/537.36 (KHTML, like Gecko) Chrome/78.0.3904.70 Safari/537.36",
        "datr_cookie": "Gfq7********************"
      }
    },
    {
      "event": "Username",
      "session": {
        "created_timestamp": 1535043330,
        "ip_address": "24.173.60.202",
        "user_agent": "",
        "datr_cookie": ""
      },
      "extra_info": {
        "old_name": "",
        "new_name": "",
        "old_number": "",
        "old_vanity": "",
        "new_vanity": "yourdadpresents",
        "old_email": "",
        "new_email": "",
        "new_number": ""
      }
    },
    {
      "event": "Username",
      "session": {
        "created_timestamp": 1535043330,
        "ip_address": "24.173.60.202",
        "user_agent": "",
        "datr_cookie": ""
      },
      "extra_info": {
        "old_name": "",
        "new_name": "",
        "old_number": "",
        "old_vanity": "",
        "new_vanity": "yourdadpresents",
        "old_email": "",
        "new_email": "",
        "new_number": ""
      }
    },
    {
      "event": "Credit Card/Coupon Action",
      "session": {
        "created_timestamp": 1488773420,
        "ip_address": "66.87.131.134",
        "user_agent": "Mozilla/5.0 (iPhone; CPU iPhone OS 10_0_1 like Mac OS X) AppleWebKit/602.1.50 (KHTML, like Gecko) Mobile/14A403 [FBAN/MessengerForiOS;FBAV/107.0.0.36.69;FBBV/50978864;FBRV/0;FBDV/iPhone7,2;FBMD/iPhone;FBSN/iOS;FBSV/10.0.1;FBSS/2;FBCR/Sprint;FBID/phone;FBLC/en_US;FBOP/5]",
        "datr_cookie": "KeG8********************"
      }
    },
    {
      "event": "Username",
      "session": {
        "created_timestamp": 1468999809,
        "ip_address": "108.185.145.9",
        "user_agent": "",
        "datr_cookie": ""
      },
      "extra_info": {
        "old_name": "",
        "new_name": "",
        "old_number": "",
        "old_vanity": "",
        "new_vanity": "thegamemessenger",
        "old_email": "",
        "new_email": "",
        "new_number": ""
      }
    },
    {
      "event": "Remove Profile Photo",
      "session": {
        "created_timestamp": 1406399129,
        "ip_address": "70.194.0.147",
        "user_agent": "Mozilla/5.0 (iPhone; CPU iPhone OS 7_1_2 like Mac OS X) AppleWebKit/537.51.2 (KHTML, like Gecko) Mobile/11D257 [FBAN/FBIOS;FBAV/12.1.0.24.20;FBBV/3214247;FBDV/iPhone5,2;FBMD/iPhone;FBSN/iPhone OS;FBSV/7.1.2;FBSS/2; FBCR/Verizon;FBID/phone;FBLC/en_US;FBOP/5]",
        "datr_cookie": "lvLT********************"
      }
    },
    {
      "event": "Remove Profile Photo",
      "session": {
        "created_timestamp": 1398719252,
        "ip_address": "64.208.122.50",
        "user_agent": "Mozilla/5.0 (Windows NT 6.2; WOW64) AppleWebKit/537.36 (KHTML, like Gecko) Chrome/34.0.1847.116 Safari/537.36",
        "datr_cookie": "9cSo********************"
      }
    },
    {
      "event": "Remove Profile Photo",
      "session": {
        "created_timestamp": 1393433515,
        "ip_address": "64.208.122.50",
        "user_agent": "Mozilla/5.0 (Windows NT 6.2; WOW64) AppleWebKit/537.36 (KHTML, like Gecko) Chrome/33.0.1750.117 Safari/537.36",
        "datr_cookie": "9cSo********************"
      }
    },
    {
      "event": "Remove Profile Photo",
      "session": {
        "created_timestamp": 1370754285,
        "ip_address": "70.199.98.59",
        "user_agent": "Mozilla/5.0 (iPhone; CPU iPhone OS 6_1_4 like Mac OS X) AppleWebKit/536.26 (KHTML, like Gecko) Mobile/10B350 [FBAN/FBIOS;FBAV/6.1.1;FBBV/202949;FBDV/iPhone5,2;FBMD/iPhone;FBSN/iPhone OS;FBSV/6.1.4;FBSS/2; FBCR/Verizon;FBID/phone;FBLC/en_US;FBOP/1]",
        "datr_cookie": "6Qy0********************"
      }
    },
    {
      "event": "Remove Profile Photo",
      "session": {
        "created_timestamp": 1368987180,
        "ip_address": "76.112.198.96",
        "user_agent": "Mozilla/5.0 (Macintosh; Intel Mac OS X 10_8_3) AppleWebKit/537.31 (KHTML, like Gecko) Chrome/26.0.1410.65 Safari/537.31",
        "datr_cookie": "Yioi********************"
      }
    },
    {
      "event": "Remove Profile Photo",
      "session": {
        "created_timestamp": 1362901445,
        "ip_address": "98.209.62.191",
        "user_agent": "Mozilla/5.0 (Macintosh; Intel Mac OS X 10_8_2) AppleWebKit/537.22 (KHTML, like Gecko) Chrome/25.0.1364.160 Safari/537.22",
        "datr_cookie": "Yioi********************"
      }
    },
    {
      "event": "Remove Profile Photo",
      "session": {
        "created_timestamp": 1362288511,
        "ip_address": "70.199.121.87",
        "user_agent": "Mozilla/5.0 (iPhone; CPU iPhone OS 6_1_2 like Mac OS X) AppleWebKit/536.26 (KHTML, like Gecko) Version/6.0 Mobile/10B146 Safari/8536.25",
        "datr_cookie": "N98y********************"
      }
    },
    {
      "event": "Remove Profile Photo",
      "session": {
        "created_timestamp": 1354548315,
        "ip_address": "2600:1007:b123:b453:0000:004d:27fb:0e01",
        "user_agent": "[FBAN/FB4A;FBAV/1.9.12;FBDM/{density=2.0,width=720,height=1184};FBLC/en_US;FBCR/Verizon Wireless;FBPN/com.facebook.katana;FBDV/Galaxy Nexus;FBSV/4.1.2;]",
        "datr_cookie": "WcS8********************"
      }
    },
    {
      "event": "Remove Profile Photo",
      "session": {
        "created_timestamp": 1345041584,
        "ip_address": "2600:1007:b003:1ea3:0000:002a:eea9:3601",
        "user_agent": "[FBAN/FB4A;FBAV/1.9.7;FBDM/{density=2.0,width=720,height=1184};FBLC/en_US;FBCR/Verizon Wireless;FBPN/com.facebook.katana;FBDV/Galaxy Nexus;FBSV/4.1.1;]",
        "datr_cookie": "rrQr********************"
      }
    },
    {
      "event": "Checkpoint completed",
      "session": {
        "created_timestamp": 1323305744,
        "ip_address": "68.62.88.177",
        "user_agent": "",
        "datr_cookie": ""
      }
    },
    {
      "event": "Password Change",
      "session": {
        "created_timestamp": 1323305743,
        "ip_address": "68.62.88.177",
        "user_agent": "Mozilla/5.0 (Macintosh; Intel Mac OS X 10_7_2) AppleWebKit/535.2 (KHTML, like Gecko) Chrome/15.0.874.121 Safari/535.2",
        "datr_cookie": "SYPF********************"
      }
    },
    {
      "event": "Checkpoint",
      "session": {
        "created_timestamp": 1323302574,
        "ip_address": "75.198.86.3",
        "user_agent": "",
        "datr_cookie": ""
      }
    },
    {
      "event": "Checkpoint completed",
      "session": {
        "created_timestamp": 1319947202,
        "ip_address": "137.22.112.166",
        "user_agent": "",
        "datr_cookie": ""
      }
    },
    {
      "event": "Checkpoint",
      "session": {
        "created_timestamp": 1319947140,
        "ip_address": "137.22.112.166",
        "user_agent": "",
        "datr_cookie": ""
      }
    },
    {
      "event": "Username",
      "session": {
        "created_timestamp": 1274761742,
        "ip_address": "76.20.178.163",
        "user_agent": "",
        "datr_cookie": ""
      },
      "extra_info": {
        "old_name": "",
        "new_name": "",
        "old_number": "",
        "old_vanity": "",
        "new_vanity": "briaguya",
        "old_email": "",
        "new_email": "",
        "new_number": ""
      }
    }
  ]
}