{
  "used_ip_address": [
    {
      "ip": "68.36.104.127",
      "action": "Login",
      "timestamp": 1575189437
    },
    {
      "ip": "99.203.143.112",
      "action": "Login",
      "timestamp": 1593566183
    },
    {
      "ip": "96.43.167.155",
      "action": "Password Change",
      "timestamp": 1593566133
    },
    {
      "ip": "136.49.8.136",
      "action": "Login",
      "timestamp": 1572324463
    },
    {
      "ip": "2600:0001:c5e0:2ce5:04fe:556e:76a4:546d",
      "action": "Login",
      "timestamp": 1575602361
    },
    {
      "ip": "2600:1700:00f0:7ed0:d161:d1a6:4eeb:e819",
      "action": "Password Change",
      "timestamp": 1572600372
    },
    {
      "ip": "67.149.144.223",
      "action": "Login",
      "timestamp": 1558823155
    },
    {
      "ip": "67.198.97.76",
      "action": "Login",
      "timestamp": 1565414837
    },
    {
      "ip": "72.131.210.30",
      "action": "Login",
      "timestamp": 1565201793
    },
    {
      "ip": "24.173.60.202",
      "action": "Username",
      "timestamp": 1535043330
    },
    {
      "ip": "66.87.131.134",
      "action": "Credit Card/Coupon Action",
      "timestamp": 1488773420
    },
    {
      "ip": "108.185.145.9",
      "action": "Username",
      "timestamp": 1468999809
    },
    {
      "ip": "70.194.0.147",
      "action": "Remove Profile Photo",
      "timestamp": 1406399129
    },
    {
      "ip": "64.208.122.50",
      "action": "Remove Profile Photo",
      "timestamp": 1393433515
    },
    {
      "ip": "70.199.98.59",
      "action": "Remove Profile Photo",
      "timestamp": 1370754285
    },
    {
      "ip": "76.112.198.96",
      "action": "Remove Profile Photo",
      "timestamp": 1368987180
    },
    {
      "ip": "98.209.62.191",
      "action": "Remove Profile Photo",
      "timestamp": 1362901445
    },
    {
      "ip": "70.199.121.87",
      "action": "Remove Profile Photo",
      "timestamp": 1362288511
    },
    {
      "ip": "2600:1007:b123:b453:0000:004d:27fb:0e01",
      "action": "Remove Profile Photo",
      "timestamp": 1354548315
    },
    {
      "ip": "2600:1007:b003:1ea3:0000:002a:eea9:3601",
      "action": "Remove Profile Photo",
      "timestamp": 1345041584
    },
    {
      "ip": "68.62.88.177",
      "action": "Password Change",
      "timestamp": 1323305743
    },
    {
      "ip": "76.20.178.163",
      "action": "Username",
      "timestamp": 1274761742
    }
  ]
}