{
  "news_feed_topics": [
    "Elon Musk",
    "Chocolate",
    "Dogs",
    "Street Art & Murals",
    "Crafts",
    "Woodworking",
    "Recipes & Tips",
    "Dessert & Sweets Recipes & Tips",
    "Musical Performances",
    "Travel Videography",
    "Photography",
    "Facebook",
    "Horticulture & Gardening",
    "Keyboard Instruments",
    "Pianos",
    "Beauty",
    "Aquatic Animals",
    "Desserts & Sweets",
    "Dance",
    "Fruit Recipes & Tips",
    "Music Festivals",
    "Space",
    "Social Media",
    "Rock Music",
    "Baked Goods",
    "Amazon",
    "Comedy",
    "DIY Home Repair & Improvement",
    "Funny Animals",
    "Restaurants & Dining",
    "Cruises ",
    "Home Renovation & Construction",
    "Music Industry",
    "Painting",
    "Home & Garden Hacks",
    "Skateboarding",
    "Video Games",
    "Playstation",
    "Music Videos",
    "Cute Animals",
    "Role-Playing Video Games",
    "Business News",
    "Sculpture",
    "Financial Markets",
    "Animation",
    "Banking & Financial Industry ",
    "Sketch Comedy TV & Movies",
    "Foreign Exchange Markets",
    "Pop Music"
  ]
}