{
  "news_topics": [
    "Donald Trump",
    "Supreme Court",
    "Bees",
    "Spotify Technology",
    "Punk Music",
    "FBI",
    "Heavy Metal Music",
    "Disease Outbreaks",
    "Animal Crossing",
    "Department of Justice",
    "Saturday Night Live",
    "Camping & Backpacking",
    "Ska Punk",
    "Nintendo",
    "Music Videos"
  ]
}