{
  "events_interactions": [
    {
      "name": "",
      "description": "",
      "entries": [
        {
          "timestamp": 1559976681,
          "data": {
            "value": "426"
          }
        }
      ]
    }
  ]
}